Biomarkers of ASD
…
We compare the data before processing and after processing. Specifically, we compare the raw data set and data after log-transformation and scaling. We randomly selected two sample protein types and examine the normality. It could be seen that DERM is normally distributed before pre-processing but not centered at 0, while Mcl-1 is neither normally distributed nor centralized. Therefore, we could conclude that not all protein types are normally distributed in the raw data, so a log-transformation is used. By using this method, the data used for further model training could be more reliable.

Task 2

To do some exploratory analysis of outlying values. First, we counted the number of outliers (Z-scores > 3) standard deviation from the mean) per subject.

Most subjects have 0 to 3 outliers, but we are more interested in subjects with more than 4 outliers.

# A tibble: 34 × 3
   group Column                    Outlier_Count
   <chr> <chr>                             <int>
 1 ASD   SIG14                                 5
 2 ASD   Ephrin-A3                             4
 3 ASD   Annexin V                             4
 4 ASD   C1q                                   4
 5 ASD   IL-17F                                4
 6 ASD   CDK5/p35                              4
 7 ASD   TLR2                                  4
 8 ASD   Phosphoglycerate mutase 1             4
 9 ASD   NUDC3                                 4
10 ASD   TGM3                                  4
# ℹ 24 more rows
…
